%TF.GenerationSoftware,KiCad,Pcbnew,7.0.1*%
%TF.CreationDate,2023-11-10T20:53:30-06:00*%
%TF.ProjectId,Metallic Chaos,4d657461-6c6c-4696-9320-4368616f732e,v1.1*%
%TF.SameCoordinates,Original*%
%TF.FileFunction,Drillmap*%
%TF.FilePolarity,Positive*%
%FSLAX45Y45*%
G04 Gerber Fmt 4.5, Leading zero omitted, Abs format (unit mm)*
G04 Created by KiCad (PCBNEW 7.0.1) date 2023-11-10 20:53:30*
%MOMM*%
%LPD*%
G01*
G04 APERTURE LIST*
%ADD10C,0.100000*%
%ADD11C,0.200000*%
%ADD12C,0.320000*%
%ADD13C,0.500000*%
%ADD14C,0.700000*%
%ADD15C,1.000000*%
G04 APERTURE END LIST*
D10*
X-5000000Y20000000D02*
X5000000Y20000000D01*
X5000000Y0D01*
X-5000000Y0D01*
X-5000000Y20000000D01*
D11*
D12*
X-4710000Y19860000D02*
X-4390000Y19540000D01*
X-4390000Y19860000D02*
X-4710000Y19540000D01*
D11*
X-4700000Y19540000D02*
X-4400000Y19540000D01*
X-4400000Y19540000D02*
G75*
G03*
X-4400000Y19860000I0J160000D01*
G01*
X-4400000Y19860000D02*
X-4700000Y19860000D01*
X-4700000Y19860000D02*
G75*
G03*
X-4700000Y19540000I0J-160000D01*
G01*
D12*
X-4710000Y460000D02*
X-4390000Y140000D01*
X-4390000Y460000D02*
X-4710000Y140000D01*
D11*
X-4700000Y140000D02*
X-4400000Y140000D01*
X-4400000Y140000D02*
G75*
G03*
X-4400000Y460000I0J160000D01*
G01*
X-4400000Y460000D02*
X-4700000Y460000D01*
X-4700000Y460000D02*
G75*
G03*
X-4700000Y140000I0J-160000D01*
G01*
D12*
X4390000Y19860000D02*
X4710000Y19540000D01*
X4710000Y19860000D02*
X4390000Y19540000D01*
D11*
X4400000Y19540000D02*
X4700000Y19540000D01*
X4700000Y19540000D02*
G75*
G03*
X4700000Y19860000I0J160000D01*
G01*
X4700000Y19860000D02*
X4400000Y19860000D01*
X4400000Y19860000D02*
G75*
G03*
X4400000Y19540000I0J-160000D01*
G01*
D12*
X4390000Y460000D02*
X4710000Y140000D01*
X4710000Y460000D02*
X4390000Y140000D01*
D11*
X4400000Y140000D02*
X4700000Y140000D01*
X4700000Y140000D02*
G75*
G03*
X4700000Y460000I0J160000D01*
G01*
X4700000Y460000D02*
X4400000Y460000D01*
X4400000Y460000D02*
G75*
G03*
X4400000Y140000I0J-160000D01*
G01*
D13*
X-2250000Y18000000D02*
G75*
G03*
X-2250000Y18000000I-250000J0D01*
G01*
D14*
X-3750000Y17350000D02*
X-3750000Y16650000D01*
X-4100000Y17000000D02*
X-3400000Y17000000D01*
X-3750000Y14350000D02*
X-3750000Y13650000D01*
X-4100000Y14000000D02*
X-3400000Y14000000D01*
X-3750000Y11350000D02*
X-3750000Y10650000D01*
X-4100000Y11000000D02*
X-3400000Y11000000D01*
X-3750000Y8350000D02*
X-3750000Y7650000D01*
X-4100000Y8000000D02*
X-3400000Y8000000D01*
X-1250000Y17350000D02*
X-1250000Y16650000D01*
X-1600000Y17000000D02*
X-900000Y17000000D01*
X-1250000Y14350000D02*
X-1250000Y13650000D01*
X-1600000Y14000000D02*
X-900000Y14000000D01*
X-1250000Y11350000D02*
X-1250000Y10650000D01*
X-1600000Y11000000D02*
X-900000Y11000000D01*
X-1250000Y8350000D02*
X-1250000Y7650000D01*
X-1600000Y8000000D02*
X-900000Y8000000D01*
X1250000Y17350000D02*
X1250000Y16650000D01*
X900000Y17000000D02*
X1600000Y17000000D01*
X1250000Y14350000D02*
X1250000Y13650000D01*
X900000Y14000000D02*
X1600000Y14000000D01*
X1250000Y11350000D02*
X1250000Y10650000D01*
X900000Y11000000D02*
X1600000Y11000000D01*
X1250000Y8350000D02*
X1250000Y7650000D01*
X900000Y8000000D02*
X1600000Y8000000D01*
X2500000Y11350000D02*
X2500000Y10650000D01*
X2150000Y11000000D02*
X2850000Y11000000D01*
X3750000Y17350000D02*
X3750000Y16650000D01*
X3400000Y17000000D02*
X4100000Y17000000D01*
X3750000Y14350000D02*
X3750000Y13650000D01*
X3400000Y14000000D02*
X4100000Y14000000D01*
X3750000Y11350000D02*
X3750000Y10650000D01*
X3400000Y11000000D02*
X4100000Y11000000D01*
X3750000Y8350000D02*
X3750000Y7650000D01*
X3400000Y8000000D02*
X4100000Y8000000D01*
D15*
X-3396443Y4646443D02*
X-3396443Y5353557D01*
X-4103557Y5353557D01*
X-4103557Y4646443D01*
X-3396443Y4646443D01*
X-3396443Y2146443D02*
X-3396443Y2853557D01*
X-4103557Y2853557D01*
X-4103557Y2146443D01*
X-3396443Y2146443D01*
X-896443Y4646443D02*
X-896443Y5353557D01*
X-1603557Y5353557D01*
X-1603557Y4646443D01*
X-896443Y4646443D01*
X-896443Y2146443D02*
X-896443Y2853557D01*
X-1603557Y2853557D01*
X-1603557Y2146443D01*
X-896443Y2146443D01*
X1603557Y4646443D02*
X1603557Y5353557D01*
X896443Y5353557D01*
X896443Y4646443D01*
X1603557Y4646443D01*
X1603557Y2146443D02*
X1603557Y2853557D01*
X896443Y2853557D01*
X896443Y2146443D01*
X1603557Y2146443D01*
X4103557Y2146443D02*
X4103557Y2853557D01*
X3396443Y2853557D01*
X3396443Y2146443D01*
X4103557Y2146443D01*
D11*
X-4757381Y-317524D02*
X-4757381Y-117524D01*
X-4757381Y-117524D02*
X-4709762Y-117524D01*
X-4709762Y-117524D02*
X-4681190Y-127048D01*
X-4681190Y-127048D02*
X-4662143Y-146095D01*
X-4662143Y-146095D02*
X-4652619Y-165143D01*
X-4652619Y-165143D02*
X-4643095Y-203238D01*
X-4643095Y-203238D02*
X-4643095Y-231809D01*
X-4643095Y-231809D02*
X-4652619Y-269905D01*
X-4652619Y-269905D02*
X-4662143Y-288952D01*
X-4662143Y-288952D02*
X-4681190Y-308000D01*
X-4681190Y-308000D02*
X-4709762Y-317524D01*
X-4709762Y-317524D02*
X-4757381Y-317524D01*
X-4557381Y-317524D02*
X-4557381Y-184190D01*
X-4557381Y-222286D02*
X-4547857Y-203238D01*
X-4547857Y-203238D02*
X-4538333Y-193714D01*
X-4538333Y-193714D02*
X-4519286Y-184190D01*
X-4519286Y-184190D02*
X-4500238Y-184190D01*
X-4433571Y-317524D02*
X-4433571Y-184190D01*
X-4433571Y-117524D02*
X-4443095Y-127048D01*
X-4443095Y-127048D02*
X-4433571Y-136571D01*
X-4433571Y-136571D02*
X-4424048Y-127048D01*
X-4424048Y-127048D02*
X-4433571Y-117524D01*
X-4433571Y-117524D02*
X-4433571Y-136571D01*
X-4309762Y-317524D02*
X-4328810Y-308000D01*
X-4328810Y-308000D02*
X-4338333Y-288952D01*
X-4338333Y-288952D02*
X-4338333Y-117524D01*
X-4205000Y-317524D02*
X-4224048Y-308000D01*
X-4224048Y-308000D02*
X-4233571Y-288952D01*
X-4233571Y-288952D02*
X-4233571Y-117524D01*
X-3976428Y-317524D02*
X-3976428Y-117524D01*
X-3976428Y-117524D02*
X-3909762Y-260381D01*
X-3909762Y-260381D02*
X-3843095Y-117524D01*
X-3843095Y-117524D02*
X-3843095Y-317524D01*
X-3662143Y-317524D02*
X-3662143Y-212762D01*
X-3662143Y-212762D02*
X-3671667Y-193714D01*
X-3671667Y-193714D02*
X-3690714Y-184190D01*
X-3690714Y-184190D02*
X-3728809Y-184190D01*
X-3728809Y-184190D02*
X-3747857Y-193714D01*
X-3662143Y-308000D02*
X-3681190Y-317524D01*
X-3681190Y-317524D02*
X-3728809Y-317524D01*
X-3728809Y-317524D02*
X-3747857Y-308000D01*
X-3747857Y-308000D02*
X-3757381Y-288952D01*
X-3757381Y-288952D02*
X-3757381Y-269905D01*
X-3757381Y-269905D02*
X-3747857Y-250857D01*
X-3747857Y-250857D02*
X-3728809Y-241333D01*
X-3728809Y-241333D02*
X-3681190Y-241333D01*
X-3681190Y-241333D02*
X-3662143Y-231809D01*
X-3566905Y-184190D02*
X-3566905Y-384190D01*
X-3566905Y-193714D02*
X-3547857Y-184190D01*
X-3547857Y-184190D02*
X-3509762Y-184190D01*
X-3509762Y-184190D02*
X-3490714Y-193714D01*
X-3490714Y-193714D02*
X-3481190Y-203238D01*
X-3481190Y-203238D02*
X-3471667Y-222286D01*
X-3471667Y-222286D02*
X-3471667Y-279429D01*
X-3471667Y-279429D02*
X-3481190Y-298476D01*
X-3481190Y-298476D02*
X-3490714Y-308000D01*
X-3490714Y-308000D02*
X-3509762Y-317524D01*
X-3509762Y-317524D02*
X-3547857Y-317524D01*
X-3547857Y-317524D02*
X-3566905Y-308000D01*
X-3385952Y-298476D02*
X-3376428Y-308000D01*
X-3376428Y-308000D02*
X-3385952Y-317524D01*
X-3385952Y-317524D02*
X-3395476Y-308000D01*
X-3395476Y-308000D02*
X-3385952Y-298476D01*
X-3385952Y-298476D02*
X-3385952Y-317524D01*
X-3385952Y-193714D02*
X-3376428Y-203238D01*
X-3376428Y-203238D02*
X-3385952Y-212762D01*
X-3385952Y-212762D02*
X-3395476Y-203238D01*
X-3395476Y-203238D02*
X-3385952Y-193714D01*
X-3385952Y-193714D02*
X-3385952Y-212762D01*
X-5205000Y-545000D02*
X-5005000Y-745000D01*
X-5005000Y-545000D02*
X-5205000Y-745000D01*
X-4776429Y-537524D02*
X-4652619Y-537524D01*
X-4652619Y-537524D02*
X-4719286Y-613714D01*
X-4719286Y-613714D02*
X-4690714Y-613714D01*
X-4690714Y-613714D02*
X-4671667Y-623238D01*
X-4671667Y-623238D02*
X-4662143Y-632762D01*
X-4662143Y-632762D02*
X-4652619Y-651810D01*
X-4652619Y-651810D02*
X-4652619Y-699428D01*
X-4652619Y-699428D02*
X-4662143Y-718476D01*
X-4662143Y-718476D02*
X-4671667Y-728000D01*
X-4671667Y-728000D02*
X-4690714Y-737524D01*
X-4690714Y-737524D02*
X-4747857Y-737524D01*
X-4747857Y-737524D02*
X-4766905Y-728000D01*
X-4766905Y-728000D02*
X-4776429Y-718476D01*
X-4566905Y-718476D02*
X-4557381Y-728000D01*
X-4557381Y-728000D02*
X-4566905Y-737524D01*
X-4566905Y-737524D02*
X-4576429Y-728000D01*
X-4576429Y-728000D02*
X-4566905Y-718476D01*
X-4566905Y-718476D02*
X-4566905Y-737524D01*
X-4481190Y-556571D02*
X-4471667Y-547048D01*
X-4471667Y-547048D02*
X-4452619Y-537524D01*
X-4452619Y-537524D02*
X-4405000Y-537524D01*
X-4405000Y-537524D02*
X-4385952Y-547048D01*
X-4385952Y-547048D02*
X-4376429Y-556571D01*
X-4376429Y-556571D02*
X-4366905Y-575619D01*
X-4366905Y-575619D02*
X-4366905Y-594667D01*
X-4366905Y-594667D02*
X-4376429Y-623238D01*
X-4376429Y-623238D02*
X-4490714Y-737524D01*
X-4490714Y-737524D02*
X-4366905Y-737524D01*
X-4243095Y-537524D02*
X-4224048Y-537524D01*
X-4224048Y-537524D02*
X-4205000Y-547048D01*
X-4205000Y-547048D02*
X-4195476Y-556571D01*
X-4195476Y-556571D02*
X-4185952Y-575619D01*
X-4185952Y-575619D02*
X-4176428Y-613714D01*
X-4176428Y-613714D02*
X-4176428Y-661333D01*
X-4176428Y-661333D02*
X-4185952Y-699428D01*
X-4185952Y-699428D02*
X-4195476Y-718476D01*
X-4195476Y-718476D02*
X-4205000Y-728000D01*
X-4205000Y-728000D02*
X-4224048Y-737524D01*
X-4224048Y-737524D02*
X-4243095Y-737524D01*
X-4243095Y-737524D02*
X-4262143Y-728000D01*
X-4262143Y-728000D02*
X-4271667Y-718476D01*
X-4271667Y-718476D02*
X-4281190Y-699428D01*
X-4281190Y-699428D02*
X-4290714Y-661333D01*
X-4290714Y-661333D02*
X-4290714Y-613714D01*
X-4290714Y-613714D02*
X-4281190Y-575619D01*
X-4281190Y-575619D02*
X-4271667Y-556571D01*
X-4271667Y-556571D02*
X-4262143Y-547048D01*
X-4262143Y-547048D02*
X-4243095Y-537524D01*
X-4052619Y-537524D02*
X-4033571Y-537524D01*
X-4033571Y-537524D02*
X-4014524Y-547048D01*
X-4014524Y-547048D02*
X-4005000Y-556571D01*
X-4005000Y-556571D02*
X-3995476Y-575619D01*
X-3995476Y-575619D02*
X-3985952Y-613714D01*
X-3985952Y-613714D02*
X-3985952Y-661333D01*
X-3985952Y-661333D02*
X-3995476Y-699428D01*
X-3995476Y-699428D02*
X-4005000Y-718476D01*
X-4005000Y-718476D02*
X-4014524Y-728000D01*
X-4014524Y-728000D02*
X-4033571Y-737524D01*
X-4033571Y-737524D02*
X-4052619Y-737524D01*
X-4052619Y-737524D02*
X-4071667Y-728000D01*
X-4071667Y-728000D02*
X-4081190Y-718476D01*
X-4081190Y-718476D02*
X-4090714Y-699428D01*
X-4090714Y-699428D02*
X-4100238Y-661333D01*
X-4100238Y-661333D02*
X-4100238Y-613714D01*
X-4100238Y-613714D02*
X-4090714Y-575619D01*
X-4090714Y-575619D02*
X-4081190Y-556571D01*
X-4081190Y-556571D02*
X-4071667Y-547048D01*
X-4071667Y-547048D02*
X-4052619Y-537524D01*
X-3900238Y-737524D02*
X-3900238Y-604190D01*
X-3900238Y-623238D02*
X-3890714Y-613714D01*
X-3890714Y-613714D02*
X-3871667Y-604190D01*
X-3871667Y-604190D02*
X-3843095Y-604190D01*
X-3843095Y-604190D02*
X-3824047Y-613714D01*
X-3824047Y-613714D02*
X-3814524Y-632762D01*
X-3814524Y-632762D02*
X-3814524Y-737524D01*
X-3814524Y-632762D02*
X-3805000Y-613714D01*
X-3805000Y-613714D02*
X-3785952Y-604190D01*
X-3785952Y-604190D02*
X-3757381Y-604190D01*
X-3757381Y-604190D02*
X-3738333Y-613714D01*
X-3738333Y-613714D02*
X-3728809Y-632762D01*
X-3728809Y-632762D02*
X-3728809Y-737524D01*
X-3633571Y-737524D02*
X-3633571Y-604190D01*
X-3633571Y-623238D02*
X-3624047Y-613714D01*
X-3624047Y-613714D02*
X-3605000Y-604190D01*
X-3605000Y-604190D02*
X-3576428Y-604190D01*
X-3576428Y-604190D02*
X-3557381Y-613714D01*
X-3557381Y-613714D02*
X-3547857Y-632762D01*
X-3547857Y-632762D02*
X-3547857Y-737524D01*
X-3547857Y-632762D02*
X-3538333Y-613714D01*
X-3538333Y-613714D02*
X-3519286Y-604190D01*
X-3519286Y-604190D02*
X-3490714Y-604190D01*
X-3490714Y-604190D02*
X-3471666Y-613714D01*
X-3471666Y-613714D02*
X-3462143Y-632762D01*
X-3462143Y-632762D02*
X-3462143Y-737524D01*
X-3071666Y-528000D02*
X-3243095Y-785143D01*
X-2814524Y-537524D02*
X-2795476Y-537524D01*
X-2795476Y-537524D02*
X-2776428Y-547048D01*
X-2776428Y-547048D02*
X-2766905Y-556571D01*
X-2766905Y-556571D02*
X-2757381Y-575619D01*
X-2757381Y-575619D02*
X-2747857Y-613714D01*
X-2747857Y-613714D02*
X-2747857Y-661333D01*
X-2747857Y-661333D02*
X-2757381Y-699428D01*
X-2757381Y-699428D02*
X-2766905Y-718476D01*
X-2766905Y-718476D02*
X-2776428Y-728000D01*
X-2776428Y-728000D02*
X-2795476Y-737524D01*
X-2795476Y-737524D02*
X-2814524Y-737524D01*
X-2814524Y-737524D02*
X-2833571Y-728000D01*
X-2833571Y-728000D02*
X-2843095Y-718476D01*
X-2843095Y-718476D02*
X-2852619Y-699428D01*
X-2852619Y-699428D02*
X-2862143Y-661333D01*
X-2862143Y-661333D02*
X-2862143Y-613714D01*
X-2862143Y-613714D02*
X-2852619Y-575619D01*
X-2852619Y-575619D02*
X-2843095Y-556571D01*
X-2843095Y-556571D02*
X-2833571Y-547048D01*
X-2833571Y-547048D02*
X-2814524Y-537524D01*
X-2662143Y-718476D02*
X-2652619Y-728000D01*
X-2652619Y-728000D02*
X-2662143Y-737524D01*
X-2662143Y-737524D02*
X-2671666Y-728000D01*
X-2671666Y-728000D02*
X-2662143Y-718476D01*
X-2662143Y-718476D02*
X-2662143Y-737524D01*
X-2462143Y-737524D02*
X-2576428Y-737524D01*
X-2519286Y-737524D02*
X-2519286Y-537524D01*
X-2519286Y-537524D02*
X-2538333Y-566095D01*
X-2538333Y-566095D02*
X-2557381Y-585143D01*
X-2557381Y-585143D02*
X-2576428Y-594667D01*
X-2385952Y-556571D02*
X-2376428Y-547048D01*
X-2376428Y-547048D02*
X-2357381Y-537524D01*
X-2357381Y-537524D02*
X-2309762Y-537524D01*
X-2309762Y-537524D02*
X-2290714Y-547048D01*
X-2290714Y-547048D02*
X-2281190Y-556571D01*
X-2281190Y-556571D02*
X-2271666Y-575619D01*
X-2271666Y-575619D02*
X-2271666Y-594667D01*
X-2271666Y-594667D02*
X-2281190Y-623238D01*
X-2281190Y-623238D02*
X-2395476Y-737524D01*
X-2395476Y-737524D02*
X-2271666Y-737524D01*
X-2100238Y-537524D02*
X-2138333Y-537524D01*
X-2138333Y-537524D02*
X-2157381Y-547048D01*
X-2157381Y-547048D02*
X-2166905Y-556571D01*
X-2166905Y-556571D02*
X-2185952Y-585143D01*
X-2185952Y-585143D02*
X-2195476Y-623238D01*
X-2195476Y-623238D02*
X-2195476Y-699428D01*
X-2195476Y-699428D02*
X-2185952Y-718476D01*
X-2185952Y-718476D02*
X-2176428Y-728000D01*
X-2176428Y-728000D02*
X-2157381Y-737524D01*
X-2157381Y-737524D02*
X-2119285Y-737524D01*
X-2119285Y-737524D02*
X-2100238Y-728000D01*
X-2100238Y-728000D02*
X-2090714Y-718476D01*
X-2090714Y-718476D02*
X-2081190Y-699428D01*
X-2081190Y-699428D02*
X-2081190Y-651810D01*
X-2081190Y-651810D02*
X-2090714Y-632762D01*
X-2090714Y-632762D02*
X-2100238Y-623238D01*
X-2100238Y-623238D02*
X-2119285Y-613714D01*
X-2119285Y-613714D02*
X-2157381Y-613714D01*
X-2157381Y-613714D02*
X-2176428Y-623238D01*
X-2176428Y-623238D02*
X-2185952Y-632762D01*
X-2185952Y-632762D02*
X-2195476Y-651810D01*
X-1957381Y-537524D02*
X-1938333Y-537524D01*
X-1938333Y-537524D02*
X-1919285Y-547048D01*
X-1919285Y-547048D02*
X-1909762Y-556571D01*
X-1909762Y-556571D02*
X-1900238Y-575619D01*
X-1900238Y-575619D02*
X-1890714Y-613714D01*
X-1890714Y-613714D02*
X-1890714Y-661333D01*
X-1890714Y-661333D02*
X-1900238Y-699428D01*
X-1900238Y-699428D02*
X-1909762Y-718476D01*
X-1909762Y-718476D02*
X-1919285Y-728000D01*
X-1919285Y-728000D02*
X-1938333Y-737524D01*
X-1938333Y-737524D02*
X-1957381Y-737524D01*
X-1957381Y-737524D02*
X-1976428Y-728000D01*
X-1976428Y-728000D02*
X-1985952Y-718476D01*
X-1985952Y-718476D02*
X-1995476Y-699428D01*
X-1995476Y-699428D02*
X-2005000Y-661333D01*
X-2005000Y-661333D02*
X-2005000Y-613714D01*
X-2005000Y-613714D02*
X-1995476Y-575619D01*
X-1995476Y-575619D02*
X-1985952Y-556571D01*
X-1985952Y-556571D02*
X-1976428Y-547048D01*
X-1976428Y-547048D02*
X-1957381Y-537524D01*
X-1814523Y-537524D02*
X-1814523Y-575619D01*
X-1738333Y-537524D02*
X-1738333Y-575619D01*
X-1443095Y-813714D02*
X-1452619Y-804190D01*
X-1452619Y-804190D02*
X-1471666Y-775619D01*
X-1471666Y-775619D02*
X-1481190Y-756571D01*
X-1481190Y-756571D02*
X-1490714Y-728000D01*
X-1490714Y-728000D02*
X-1500238Y-680381D01*
X-1500238Y-680381D02*
X-1500238Y-642286D01*
X-1500238Y-642286D02*
X-1490714Y-594667D01*
X-1490714Y-594667D02*
X-1481190Y-566095D01*
X-1481190Y-566095D02*
X-1471666Y-547048D01*
X-1471666Y-547048D02*
X-1452619Y-518476D01*
X-1452619Y-518476D02*
X-1443095Y-508952D01*
X-1328809Y-537524D02*
X-1309762Y-537524D01*
X-1309762Y-537524D02*
X-1290714Y-547048D01*
X-1290714Y-547048D02*
X-1281190Y-556571D01*
X-1281190Y-556571D02*
X-1271666Y-575619D01*
X-1271666Y-575619D02*
X-1262143Y-613714D01*
X-1262143Y-613714D02*
X-1262143Y-661333D01*
X-1262143Y-661333D02*
X-1271666Y-699428D01*
X-1271666Y-699428D02*
X-1281190Y-718476D01*
X-1281190Y-718476D02*
X-1290714Y-728000D01*
X-1290714Y-728000D02*
X-1309762Y-737524D01*
X-1309762Y-737524D02*
X-1328809Y-737524D01*
X-1328809Y-737524D02*
X-1347857Y-728000D01*
X-1347857Y-728000D02*
X-1357381Y-718476D01*
X-1357381Y-718476D02*
X-1366904Y-699428D01*
X-1366904Y-699428D02*
X-1376428Y-661333D01*
X-1376428Y-661333D02*
X-1376428Y-613714D01*
X-1376428Y-613714D02*
X-1366904Y-575619D01*
X-1366904Y-575619D02*
X-1357381Y-556571D01*
X-1357381Y-556571D02*
X-1347857Y-547048D01*
X-1347857Y-547048D02*
X-1328809Y-537524D01*
X-1024047Y-737524D02*
X-1024047Y-537524D01*
X-938333Y-737524D02*
X-938333Y-632762D01*
X-938333Y-632762D02*
X-947857Y-613714D01*
X-947857Y-613714D02*
X-966904Y-604190D01*
X-966904Y-604190D02*
X-995476Y-604190D01*
X-995476Y-604190D02*
X-1014523Y-613714D01*
X-1014523Y-613714D02*
X-1024047Y-623238D01*
X-814523Y-737524D02*
X-833571Y-728000D01*
X-833571Y-728000D02*
X-843095Y-718476D01*
X-843095Y-718476D02*
X-852619Y-699428D01*
X-852619Y-699428D02*
X-852619Y-642286D01*
X-852619Y-642286D02*
X-843095Y-623238D01*
X-843095Y-623238D02*
X-833571Y-613714D01*
X-833571Y-613714D02*
X-814523Y-604190D01*
X-814523Y-604190D02*
X-785952Y-604190D01*
X-785952Y-604190D02*
X-766904Y-613714D01*
X-766904Y-613714D02*
X-757380Y-623238D01*
X-757380Y-623238D02*
X-747857Y-642286D01*
X-747857Y-642286D02*
X-747857Y-699428D01*
X-747857Y-699428D02*
X-757380Y-718476D01*
X-757380Y-718476D02*
X-766904Y-728000D01*
X-766904Y-728000D02*
X-785952Y-737524D01*
X-785952Y-737524D02*
X-814523Y-737524D01*
X-633571Y-737524D02*
X-652619Y-728000D01*
X-652619Y-728000D02*
X-662142Y-708952D01*
X-662142Y-708952D02*
X-662142Y-537524D01*
X-481190Y-728000D02*
X-500238Y-737524D01*
X-500238Y-737524D02*
X-538333Y-737524D01*
X-538333Y-737524D02*
X-557381Y-728000D01*
X-557381Y-728000D02*
X-566904Y-708952D01*
X-566904Y-708952D02*
X-566904Y-632762D01*
X-566904Y-632762D02*
X-557381Y-613714D01*
X-557381Y-613714D02*
X-538333Y-604190D01*
X-538333Y-604190D02*
X-500238Y-604190D01*
X-500238Y-604190D02*
X-481190Y-613714D01*
X-481190Y-613714D02*
X-471666Y-632762D01*
X-471666Y-632762D02*
X-471666Y-651810D01*
X-471666Y-651810D02*
X-566904Y-670857D01*
X-395476Y-728000D02*
X-376428Y-737524D01*
X-376428Y-737524D02*
X-338333Y-737524D01*
X-338333Y-737524D02*
X-319285Y-728000D01*
X-319285Y-728000D02*
X-309761Y-708952D01*
X-309761Y-708952D02*
X-309761Y-699428D01*
X-309761Y-699428D02*
X-319285Y-680381D01*
X-319285Y-680381D02*
X-338333Y-670857D01*
X-338333Y-670857D02*
X-366904Y-670857D01*
X-366904Y-670857D02*
X-385952Y-661333D01*
X-385952Y-661333D02*
X-395476Y-642286D01*
X-395476Y-642286D02*
X-395476Y-632762D01*
X-395476Y-632762D02*
X-385952Y-613714D01*
X-385952Y-613714D02*
X-366904Y-604190D01*
X-366904Y-604190D02*
X-338333Y-604190D01*
X-338333Y-604190D02*
X-319285Y-613714D01*
X-71666Y-661333D02*
X80715Y-661333D01*
X4524Y-737524D02*
X4524Y-585143D01*
X414048Y-604190D02*
X414048Y-737524D01*
X366429Y-528000D02*
X318810Y-670857D01*
X318810Y-670857D02*
X442619Y-670857D01*
X661667Y-728000D02*
X680715Y-737524D01*
X680715Y-737524D02*
X718810Y-737524D01*
X718810Y-737524D02*
X737858Y-728000D01*
X737858Y-728000D02*
X747381Y-708952D01*
X747381Y-708952D02*
X747381Y-699428D01*
X747381Y-699428D02*
X737858Y-680381D01*
X737858Y-680381D02*
X718810Y-670857D01*
X718810Y-670857D02*
X690239Y-670857D01*
X690239Y-670857D02*
X671191Y-661333D01*
X671191Y-661333D02*
X661667Y-642286D01*
X661667Y-642286D02*
X661667Y-632762D01*
X661667Y-632762D02*
X671191Y-613714D01*
X671191Y-613714D02*
X690239Y-604190D01*
X690239Y-604190D02*
X718810Y-604190D01*
X718810Y-604190D02*
X737858Y-613714D01*
X861667Y-737524D02*
X842620Y-728000D01*
X842620Y-728000D02*
X833096Y-708952D01*
X833096Y-708952D02*
X833096Y-537524D01*
X966429Y-737524D02*
X947381Y-728000D01*
X947381Y-728000D02*
X937858Y-718476D01*
X937858Y-718476D02*
X928334Y-699428D01*
X928334Y-699428D02*
X928334Y-642286D01*
X928334Y-642286D02*
X937858Y-623238D01*
X937858Y-623238D02*
X947381Y-613714D01*
X947381Y-613714D02*
X966429Y-604190D01*
X966429Y-604190D02*
X995001Y-604190D01*
X995001Y-604190D02*
X1014048Y-613714D01*
X1014048Y-613714D02*
X1023572Y-623238D01*
X1023572Y-623238D02*
X1033096Y-642286D01*
X1033096Y-642286D02*
X1033096Y-699428D01*
X1033096Y-699428D02*
X1023572Y-718476D01*
X1023572Y-718476D02*
X1014048Y-728000D01*
X1014048Y-728000D02*
X995001Y-737524D01*
X995001Y-737524D02*
X966429Y-737524D01*
X1090239Y-604190D02*
X1166429Y-604190D01*
X1118810Y-537524D02*
X1118810Y-708952D01*
X1118810Y-708952D02*
X1128334Y-728000D01*
X1128334Y-728000D02*
X1147382Y-737524D01*
X1147382Y-737524D02*
X1166429Y-737524D01*
X1223572Y-728000D02*
X1242620Y-737524D01*
X1242620Y-737524D02*
X1280715Y-737524D01*
X1280715Y-737524D02*
X1299763Y-728000D01*
X1299763Y-728000D02*
X1309286Y-708952D01*
X1309286Y-708952D02*
X1309286Y-699428D01*
X1309286Y-699428D02*
X1299763Y-680381D01*
X1299763Y-680381D02*
X1280715Y-670857D01*
X1280715Y-670857D02*
X1252143Y-670857D01*
X1252143Y-670857D02*
X1233096Y-661333D01*
X1233096Y-661333D02*
X1223572Y-642286D01*
X1223572Y-642286D02*
X1223572Y-632762D01*
X1223572Y-632762D02*
X1233096Y-613714D01*
X1233096Y-613714D02*
X1252143Y-604190D01*
X1252143Y-604190D02*
X1280715Y-604190D01*
X1280715Y-604190D02*
X1299763Y-613714D01*
X1375953Y-813714D02*
X1385477Y-804190D01*
X1385477Y-804190D02*
X1404524Y-775619D01*
X1404524Y-775619D02*
X1414048Y-756571D01*
X1414048Y-756571D02*
X1423572Y-728000D01*
X1423572Y-728000D02*
X1433096Y-680381D01*
X1433096Y-680381D02*
X1433096Y-642286D01*
X1433096Y-642286D02*
X1423572Y-594667D01*
X1423572Y-594667D02*
X1414048Y-566095D01*
X1414048Y-566095D02*
X1404524Y-547048D01*
X1404524Y-547048D02*
X1385477Y-518476D01*
X1385477Y-518476D02*
X1375953Y-508952D01*
X-5005000Y-965000D02*
G75*
G03*
X-5005000Y-965000I-100000J0D01*
G01*
X-4662143Y-857524D02*
X-4757381Y-857524D01*
X-4757381Y-857524D02*
X-4766905Y-952762D01*
X-4766905Y-952762D02*
X-4757381Y-943238D01*
X-4757381Y-943238D02*
X-4738333Y-933714D01*
X-4738333Y-933714D02*
X-4690714Y-933714D01*
X-4690714Y-933714D02*
X-4671667Y-943238D01*
X-4671667Y-943238D02*
X-4662143Y-952762D01*
X-4662143Y-952762D02*
X-4652619Y-971809D01*
X-4652619Y-971809D02*
X-4652619Y-1019428D01*
X-4652619Y-1019428D02*
X-4662143Y-1038476D01*
X-4662143Y-1038476D02*
X-4671667Y-1048000D01*
X-4671667Y-1048000D02*
X-4690714Y-1057524D01*
X-4690714Y-1057524D02*
X-4738333Y-1057524D01*
X-4738333Y-1057524D02*
X-4757381Y-1048000D01*
X-4757381Y-1048000D02*
X-4766905Y-1038476D01*
X-4566905Y-1038476D02*
X-4557381Y-1048000D01*
X-4557381Y-1048000D02*
X-4566905Y-1057524D01*
X-4566905Y-1057524D02*
X-4576429Y-1048000D01*
X-4576429Y-1048000D02*
X-4566905Y-1038476D01*
X-4566905Y-1038476D02*
X-4566905Y-1057524D01*
X-4433571Y-857524D02*
X-4414524Y-857524D01*
X-4414524Y-857524D02*
X-4395476Y-867048D01*
X-4395476Y-867048D02*
X-4385952Y-876571D01*
X-4385952Y-876571D02*
X-4376429Y-895619D01*
X-4376429Y-895619D02*
X-4366905Y-933714D01*
X-4366905Y-933714D02*
X-4366905Y-981333D01*
X-4366905Y-981333D02*
X-4376429Y-1019428D01*
X-4376429Y-1019428D02*
X-4385952Y-1038476D01*
X-4385952Y-1038476D02*
X-4395476Y-1048000D01*
X-4395476Y-1048000D02*
X-4414524Y-1057524D01*
X-4414524Y-1057524D02*
X-4433571Y-1057524D01*
X-4433571Y-1057524D02*
X-4452619Y-1048000D01*
X-4452619Y-1048000D02*
X-4462143Y-1038476D01*
X-4462143Y-1038476D02*
X-4471667Y-1019428D01*
X-4471667Y-1019428D02*
X-4481190Y-981333D01*
X-4481190Y-981333D02*
X-4481190Y-933714D01*
X-4481190Y-933714D02*
X-4471667Y-895619D01*
X-4471667Y-895619D02*
X-4462143Y-876571D01*
X-4462143Y-876571D02*
X-4452619Y-867048D01*
X-4452619Y-867048D02*
X-4433571Y-857524D01*
X-4243095Y-857524D02*
X-4224048Y-857524D01*
X-4224048Y-857524D02*
X-4205000Y-867048D01*
X-4205000Y-867048D02*
X-4195476Y-876571D01*
X-4195476Y-876571D02*
X-4185952Y-895619D01*
X-4185952Y-895619D02*
X-4176428Y-933714D01*
X-4176428Y-933714D02*
X-4176428Y-981333D01*
X-4176428Y-981333D02*
X-4185952Y-1019428D01*
X-4185952Y-1019428D02*
X-4195476Y-1038476D01*
X-4195476Y-1038476D02*
X-4205000Y-1048000D01*
X-4205000Y-1048000D02*
X-4224048Y-1057524D01*
X-4224048Y-1057524D02*
X-4243095Y-1057524D01*
X-4243095Y-1057524D02*
X-4262143Y-1048000D01*
X-4262143Y-1048000D02*
X-4271667Y-1038476D01*
X-4271667Y-1038476D02*
X-4281190Y-1019428D01*
X-4281190Y-1019428D02*
X-4290714Y-981333D01*
X-4290714Y-981333D02*
X-4290714Y-933714D01*
X-4290714Y-933714D02*
X-4281190Y-895619D01*
X-4281190Y-895619D02*
X-4271667Y-876571D01*
X-4271667Y-876571D02*
X-4262143Y-867048D01*
X-4262143Y-867048D02*
X-4243095Y-857524D01*
X-4052619Y-857524D02*
X-4033571Y-857524D01*
X-4033571Y-857524D02*
X-4014524Y-867048D01*
X-4014524Y-867048D02*
X-4005000Y-876571D01*
X-4005000Y-876571D02*
X-3995476Y-895619D01*
X-3995476Y-895619D02*
X-3985952Y-933714D01*
X-3985952Y-933714D02*
X-3985952Y-981333D01*
X-3985952Y-981333D02*
X-3995476Y-1019428D01*
X-3995476Y-1019428D02*
X-4005000Y-1038476D01*
X-4005000Y-1038476D02*
X-4014524Y-1048000D01*
X-4014524Y-1048000D02*
X-4033571Y-1057524D01*
X-4033571Y-1057524D02*
X-4052619Y-1057524D01*
X-4052619Y-1057524D02*
X-4071667Y-1048000D01*
X-4071667Y-1048000D02*
X-4081190Y-1038476D01*
X-4081190Y-1038476D02*
X-4090714Y-1019428D01*
X-4090714Y-1019428D02*
X-4100238Y-981333D01*
X-4100238Y-981333D02*
X-4100238Y-933714D01*
X-4100238Y-933714D02*
X-4090714Y-895619D01*
X-4090714Y-895619D02*
X-4081190Y-876571D01*
X-4081190Y-876571D02*
X-4071667Y-867048D01*
X-4071667Y-867048D02*
X-4052619Y-857524D01*
X-3900238Y-1057524D02*
X-3900238Y-924190D01*
X-3900238Y-943238D02*
X-3890714Y-933714D01*
X-3890714Y-933714D02*
X-3871667Y-924190D01*
X-3871667Y-924190D02*
X-3843095Y-924190D01*
X-3843095Y-924190D02*
X-3824047Y-933714D01*
X-3824047Y-933714D02*
X-3814524Y-952762D01*
X-3814524Y-952762D02*
X-3814524Y-1057524D01*
X-3814524Y-952762D02*
X-3805000Y-933714D01*
X-3805000Y-933714D02*
X-3785952Y-924190D01*
X-3785952Y-924190D02*
X-3757381Y-924190D01*
X-3757381Y-924190D02*
X-3738333Y-933714D01*
X-3738333Y-933714D02*
X-3728809Y-952762D01*
X-3728809Y-952762D02*
X-3728809Y-1057524D01*
X-3633571Y-1057524D02*
X-3633571Y-924190D01*
X-3633571Y-943238D02*
X-3624047Y-933714D01*
X-3624047Y-933714D02*
X-3605000Y-924190D01*
X-3605000Y-924190D02*
X-3576428Y-924190D01*
X-3576428Y-924190D02*
X-3557381Y-933714D01*
X-3557381Y-933714D02*
X-3547857Y-952762D01*
X-3547857Y-952762D02*
X-3547857Y-1057524D01*
X-3547857Y-952762D02*
X-3538333Y-933714D01*
X-3538333Y-933714D02*
X-3519286Y-924190D01*
X-3519286Y-924190D02*
X-3490714Y-924190D01*
X-3490714Y-924190D02*
X-3471666Y-933714D01*
X-3471666Y-933714D02*
X-3462143Y-952762D01*
X-3462143Y-952762D02*
X-3462143Y-1057524D01*
X-3071666Y-848000D02*
X-3243095Y-1105143D01*
X-2814524Y-857524D02*
X-2795476Y-857524D01*
X-2795476Y-857524D02*
X-2776428Y-867048D01*
X-2776428Y-867048D02*
X-2766905Y-876571D01*
X-2766905Y-876571D02*
X-2757381Y-895619D01*
X-2757381Y-895619D02*
X-2747857Y-933714D01*
X-2747857Y-933714D02*
X-2747857Y-981333D01*
X-2747857Y-981333D02*
X-2757381Y-1019428D01*
X-2757381Y-1019428D02*
X-2766905Y-1038476D01*
X-2766905Y-1038476D02*
X-2776428Y-1048000D01*
X-2776428Y-1048000D02*
X-2795476Y-1057524D01*
X-2795476Y-1057524D02*
X-2814524Y-1057524D01*
X-2814524Y-1057524D02*
X-2833571Y-1048000D01*
X-2833571Y-1048000D02*
X-2843095Y-1038476D01*
X-2843095Y-1038476D02*
X-2852619Y-1019428D01*
X-2852619Y-1019428D02*
X-2862143Y-981333D01*
X-2862143Y-981333D02*
X-2862143Y-933714D01*
X-2862143Y-933714D02*
X-2852619Y-895619D01*
X-2852619Y-895619D02*
X-2843095Y-876571D01*
X-2843095Y-876571D02*
X-2833571Y-867048D01*
X-2833571Y-867048D02*
X-2814524Y-857524D01*
X-2662143Y-1038476D02*
X-2652619Y-1048000D01*
X-2652619Y-1048000D02*
X-2662143Y-1057524D01*
X-2662143Y-1057524D02*
X-2671666Y-1048000D01*
X-2671666Y-1048000D02*
X-2662143Y-1038476D01*
X-2662143Y-1038476D02*
X-2662143Y-1057524D01*
X-2462143Y-1057524D02*
X-2576428Y-1057524D01*
X-2519286Y-1057524D02*
X-2519286Y-857524D01*
X-2519286Y-857524D02*
X-2538333Y-886095D01*
X-2538333Y-886095D02*
X-2557381Y-905143D01*
X-2557381Y-905143D02*
X-2576428Y-914667D01*
X-2366905Y-1057524D02*
X-2328809Y-1057524D01*
X-2328809Y-1057524D02*
X-2309762Y-1048000D01*
X-2309762Y-1048000D02*
X-2300238Y-1038476D01*
X-2300238Y-1038476D02*
X-2281190Y-1009905D01*
X-2281190Y-1009905D02*
X-2271666Y-971809D01*
X-2271666Y-971809D02*
X-2271666Y-895619D01*
X-2271666Y-895619D02*
X-2281190Y-876571D01*
X-2281190Y-876571D02*
X-2290714Y-867048D01*
X-2290714Y-867048D02*
X-2309762Y-857524D01*
X-2309762Y-857524D02*
X-2347857Y-857524D01*
X-2347857Y-857524D02*
X-2366905Y-867048D01*
X-2366905Y-867048D02*
X-2376428Y-876571D01*
X-2376428Y-876571D02*
X-2385952Y-895619D01*
X-2385952Y-895619D02*
X-2385952Y-943238D01*
X-2385952Y-943238D02*
X-2376428Y-962286D01*
X-2376428Y-962286D02*
X-2366905Y-971809D01*
X-2366905Y-971809D02*
X-2347857Y-981333D01*
X-2347857Y-981333D02*
X-2309762Y-981333D01*
X-2309762Y-981333D02*
X-2290714Y-971809D01*
X-2290714Y-971809D02*
X-2281190Y-962286D01*
X-2281190Y-962286D02*
X-2271666Y-943238D01*
X-2100238Y-857524D02*
X-2138333Y-857524D01*
X-2138333Y-857524D02*
X-2157381Y-867048D01*
X-2157381Y-867048D02*
X-2166905Y-876571D01*
X-2166905Y-876571D02*
X-2185952Y-905143D01*
X-2185952Y-905143D02*
X-2195476Y-943238D01*
X-2195476Y-943238D02*
X-2195476Y-1019428D01*
X-2195476Y-1019428D02*
X-2185952Y-1038476D01*
X-2185952Y-1038476D02*
X-2176428Y-1048000D01*
X-2176428Y-1048000D02*
X-2157381Y-1057524D01*
X-2157381Y-1057524D02*
X-2119285Y-1057524D01*
X-2119285Y-1057524D02*
X-2100238Y-1048000D01*
X-2100238Y-1048000D02*
X-2090714Y-1038476D01*
X-2090714Y-1038476D02*
X-2081190Y-1019428D01*
X-2081190Y-1019428D02*
X-2081190Y-971809D01*
X-2081190Y-971809D02*
X-2090714Y-952762D01*
X-2090714Y-952762D02*
X-2100238Y-943238D01*
X-2100238Y-943238D02*
X-2119285Y-933714D01*
X-2119285Y-933714D02*
X-2157381Y-933714D01*
X-2157381Y-933714D02*
X-2176428Y-943238D01*
X-2176428Y-943238D02*
X-2185952Y-952762D01*
X-2185952Y-952762D02*
X-2195476Y-971809D01*
X-1985952Y-1057524D02*
X-1947857Y-1057524D01*
X-1947857Y-1057524D02*
X-1928809Y-1048000D01*
X-1928809Y-1048000D02*
X-1919285Y-1038476D01*
X-1919285Y-1038476D02*
X-1900238Y-1009905D01*
X-1900238Y-1009905D02*
X-1890714Y-971809D01*
X-1890714Y-971809D02*
X-1890714Y-895619D01*
X-1890714Y-895619D02*
X-1900238Y-876571D01*
X-1900238Y-876571D02*
X-1909762Y-867048D01*
X-1909762Y-867048D02*
X-1928809Y-857524D01*
X-1928809Y-857524D02*
X-1966904Y-857524D01*
X-1966904Y-857524D02*
X-1985952Y-867048D01*
X-1985952Y-867048D02*
X-1995476Y-876571D01*
X-1995476Y-876571D02*
X-2005000Y-895619D01*
X-2005000Y-895619D02*
X-2005000Y-943238D01*
X-2005000Y-943238D02*
X-1995476Y-962286D01*
X-1995476Y-962286D02*
X-1985952Y-971809D01*
X-1985952Y-971809D02*
X-1966904Y-981333D01*
X-1966904Y-981333D02*
X-1928809Y-981333D01*
X-1928809Y-981333D02*
X-1909762Y-971809D01*
X-1909762Y-971809D02*
X-1900238Y-962286D01*
X-1900238Y-962286D02*
X-1890714Y-943238D01*
X-1814523Y-857524D02*
X-1814523Y-895619D01*
X-1738333Y-857524D02*
X-1738333Y-895619D01*
X-1443095Y-1133714D02*
X-1452619Y-1124190D01*
X-1452619Y-1124190D02*
X-1471666Y-1095619D01*
X-1471666Y-1095619D02*
X-1481190Y-1076571D01*
X-1481190Y-1076571D02*
X-1490714Y-1048000D01*
X-1490714Y-1048000D02*
X-1500238Y-1000381D01*
X-1500238Y-1000381D02*
X-1500238Y-962286D01*
X-1500238Y-962286D02*
X-1490714Y-914667D01*
X-1490714Y-914667D02*
X-1481190Y-886095D01*
X-1481190Y-886095D02*
X-1471666Y-867048D01*
X-1471666Y-867048D02*
X-1452619Y-838476D01*
X-1452619Y-838476D02*
X-1443095Y-828952D01*
X-1262143Y-1057524D02*
X-1376428Y-1057524D01*
X-1319285Y-1057524D02*
X-1319285Y-857524D01*
X-1319285Y-857524D02*
X-1338333Y-886095D01*
X-1338333Y-886095D02*
X-1357381Y-905143D01*
X-1357381Y-905143D02*
X-1376428Y-914667D01*
X-1024047Y-1057524D02*
X-1024047Y-857524D01*
X-938333Y-1057524D02*
X-938333Y-952762D01*
X-938333Y-952762D02*
X-947857Y-933714D01*
X-947857Y-933714D02*
X-966904Y-924190D01*
X-966904Y-924190D02*
X-995476Y-924190D01*
X-995476Y-924190D02*
X-1014523Y-933714D01*
X-1014523Y-933714D02*
X-1024047Y-943238D01*
X-814523Y-1057524D02*
X-833571Y-1048000D01*
X-833571Y-1048000D02*
X-843095Y-1038476D01*
X-843095Y-1038476D02*
X-852619Y-1019428D01*
X-852619Y-1019428D02*
X-852619Y-962286D01*
X-852619Y-962286D02*
X-843095Y-943238D01*
X-843095Y-943238D02*
X-833571Y-933714D01*
X-833571Y-933714D02*
X-814523Y-924190D01*
X-814523Y-924190D02*
X-785952Y-924190D01*
X-785952Y-924190D02*
X-766904Y-933714D01*
X-766904Y-933714D02*
X-757380Y-943238D01*
X-757380Y-943238D02*
X-747857Y-962286D01*
X-747857Y-962286D02*
X-747857Y-1019428D01*
X-747857Y-1019428D02*
X-757380Y-1038476D01*
X-757380Y-1038476D02*
X-766904Y-1048000D01*
X-766904Y-1048000D02*
X-785952Y-1057524D01*
X-785952Y-1057524D02*
X-814523Y-1057524D01*
X-633571Y-1057524D02*
X-652619Y-1048000D01*
X-652619Y-1048000D02*
X-662142Y-1028952D01*
X-662142Y-1028952D02*
X-662142Y-857524D01*
X-481190Y-1048000D02*
X-500238Y-1057524D01*
X-500238Y-1057524D02*
X-538333Y-1057524D01*
X-538333Y-1057524D02*
X-557381Y-1048000D01*
X-557381Y-1048000D02*
X-566904Y-1028952D01*
X-566904Y-1028952D02*
X-566904Y-952762D01*
X-566904Y-952762D02*
X-557381Y-933714D01*
X-557381Y-933714D02*
X-538333Y-924190D01*
X-538333Y-924190D02*
X-500238Y-924190D01*
X-500238Y-924190D02*
X-481190Y-933714D01*
X-481190Y-933714D02*
X-471666Y-952762D01*
X-471666Y-952762D02*
X-471666Y-971809D01*
X-471666Y-971809D02*
X-566904Y-990857D01*
X-404999Y-1133714D02*
X-395476Y-1124190D01*
X-395476Y-1124190D02*
X-376428Y-1095619D01*
X-376428Y-1095619D02*
X-366904Y-1076571D01*
X-366904Y-1076571D02*
X-357380Y-1048000D01*
X-357380Y-1048000D02*
X-347857Y-1000381D01*
X-347857Y-1000381D02*
X-347857Y-962286D01*
X-347857Y-962286D02*
X-357380Y-914667D01*
X-357380Y-914667D02*
X-366904Y-886095D01*
X-366904Y-886095D02*
X-376428Y-867048D01*
X-376428Y-867048D02*
X-395476Y-838476D01*
X-395476Y-838476D02*
X-404999Y-828952D01*
X-5105000Y-1185000D02*
X-5105000Y-1385000D01*
X-5205000Y-1285000D02*
X-5005000Y-1285000D01*
X-4776429Y-1177524D02*
X-4643095Y-1177524D01*
X-4643095Y-1177524D02*
X-4728810Y-1377524D01*
X-4566905Y-1358476D02*
X-4557381Y-1368000D01*
X-4557381Y-1368000D02*
X-4566905Y-1377524D01*
X-4566905Y-1377524D02*
X-4576429Y-1368000D01*
X-4576429Y-1368000D02*
X-4566905Y-1358476D01*
X-4566905Y-1358476D02*
X-4566905Y-1377524D01*
X-4433571Y-1177524D02*
X-4414524Y-1177524D01*
X-4414524Y-1177524D02*
X-4395476Y-1187048D01*
X-4395476Y-1187048D02*
X-4385952Y-1196571D01*
X-4385952Y-1196571D02*
X-4376429Y-1215619D01*
X-4376429Y-1215619D02*
X-4366905Y-1253714D01*
X-4366905Y-1253714D02*
X-4366905Y-1301333D01*
X-4366905Y-1301333D02*
X-4376429Y-1339429D01*
X-4376429Y-1339429D02*
X-4385952Y-1358476D01*
X-4385952Y-1358476D02*
X-4395476Y-1368000D01*
X-4395476Y-1368000D02*
X-4414524Y-1377524D01*
X-4414524Y-1377524D02*
X-4433571Y-1377524D01*
X-4433571Y-1377524D02*
X-4452619Y-1368000D01*
X-4452619Y-1368000D02*
X-4462143Y-1358476D01*
X-4462143Y-1358476D02*
X-4471667Y-1339429D01*
X-4471667Y-1339429D02*
X-4481190Y-1301333D01*
X-4481190Y-1301333D02*
X-4481190Y-1253714D01*
X-4481190Y-1253714D02*
X-4471667Y-1215619D01*
X-4471667Y-1215619D02*
X-4462143Y-1196571D01*
X-4462143Y-1196571D02*
X-4452619Y-1187048D01*
X-4452619Y-1187048D02*
X-4433571Y-1177524D01*
X-4243095Y-1177524D02*
X-4224048Y-1177524D01*
X-4224048Y-1177524D02*
X-4205000Y-1187048D01*
X-4205000Y-1187048D02*
X-4195476Y-1196571D01*
X-4195476Y-1196571D02*
X-4185952Y-1215619D01*
X-4185952Y-1215619D02*
X-4176428Y-1253714D01*
X-4176428Y-1253714D02*
X-4176428Y-1301333D01*
X-4176428Y-1301333D02*
X-4185952Y-1339429D01*
X-4185952Y-1339429D02*
X-4195476Y-1358476D01*
X-4195476Y-1358476D02*
X-4205000Y-1368000D01*
X-4205000Y-1368000D02*
X-4224048Y-1377524D01*
X-4224048Y-1377524D02*
X-4243095Y-1377524D01*
X-4243095Y-1377524D02*
X-4262143Y-1368000D01*
X-4262143Y-1368000D02*
X-4271667Y-1358476D01*
X-4271667Y-1358476D02*
X-4281190Y-1339429D01*
X-4281190Y-1339429D02*
X-4290714Y-1301333D01*
X-4290714Y-1301333D02*
X-4290714Y-1253714D01*
X-4290714Y-1253714D02*
X-4281190Y-1215619D01*
X-4281190Y-1215619D02*
X-4271667Y-1196571D01*
X-4271667Y-1196571D02*
X-4262143Y-1187048D01*
X-4262143Y-1187048D02*
X-4243095Y-1177524D01*
X-4052619Y-1177524D02*
X-4033571Y-1177524D01*
X-4033571Y-1177524D02*
X-4014524Y-1187048D01*
X-4014524Y-1187048D02*
X-4005000Y-1196571D01*
X-4005000Y-1196571D02*
X-3995476Y-1215619D01*
X-3995476Y-1215619D02*
X-3985952Y-1253714D01*
X-3985952Y-1253714D02*
X-3985952Y-1301333D01*
X-3985952Y-1301333D02*
X-3995476Y-1339429D01*
X-3995476Y-1339429D02*
X-4005000Y-1358476D01*
X-4005000Y-1358476D02*
X-4014524Y-1368000D01*
X-4014524Y-1368000D02*
X-4033571Y-1377524D01*
X-4033571Y-1377524D02*
X-4052619Y-1377524D01*
X-4052619Y-1377524D02*
X-4071667Y-1368000D01*
X-4071667Y-1368000D02*
X-4081190Y-1358476D01*
X-4081190Y-1358476D02*
X-4090714Y-1339429D01*
X-4090714Y-1339429D02*
X-4100238Y-1301333D01*
X-4100238Y-1301333D02*
X-4100238Y-1253714D01*
X-4100238Y-1253714D02*
X-4090714Y-1215619D01*
X-4090714Y-1215619D02*
X-4081190Y-1196571D01*
X-4081190Y-1196571D02*
X-4071667Y-1187048D01*
X-4071667Y-1187048D02*
X-4052619Y-1177524D01*
X-3900238Y-1377524D02*
X-3900238Y-1244190D01*
X-3900238Y-1263238D02*
X-3890714Y-1253714D01*
X-3890714Y-1253714D02*
X-3871667Y-1244190D01*
X-3871667Y-1244190D02*
X-3843095Y-1244190D01*
X-3843095Y-1244190D02*
X-3824047Y-1253714D01*
X-3824047Y-1253714D02*
X-3814524Y-1272762D01*
X-3814524Y-1272762D02*
X-3814524Y-1377524D01*
X-3814524Y-1272762D02*
X-3805000Y-1253714D01*
X-3805000Y-1253714D02*
X-3785952Y-1244190D01*
X-3785952Y-1244190D02*
X-3757381Y-1244190D01*
X-3757381Y-1244190D02*
X-3738333Y-1253714D01*
X-3738333Y-1253714D02*
X-3728809Y-1272762D01*
X-3728809Y-1272762D02*
X-3728809Y-1377524D01*
X-3633571Y-1377524D02*
X-3633571Y-1244190D01*
X-3633571Y-1263238D02*
X-3624047Y-1253714D01*
X-3624047Y-1253714D02*
X-3605000Y-1244190D01*
X-3605000Y-1244190D02*
X-3576428Y-1244190D01*
X-3576428Y-1244190D02*
X-3557381Y-1253714D01*
X-3557381Y-1253714D02*
X-3547857Y-1272762D01*
X-3547857Y-1272762D02*
X-3547857Y-1377524D01*
X-3547857Y-1272762D02*
X-3538333Y-1253714D01*
X-3538333Y-1253714D02*
X-3519286Y-1244190D01*
X-3519286Y-1244190D02*
X-3490714Y-1244190D01*
X-3490714Y-1244190D02*
X-3471666Y-1253714D01*
X-3471666Y-1253714D02*
X-3462143Y-1272762D01*
X-3462143Y-1272762D02*
X-3462143Y-1377524D01*
X-3071666Y-1168000D02*
X-3243095Y-1425143D01*
X-2814524Y-1177524D02*
X-2795476Y-1177524D01*
X-2795476Y-1177524D02*
X-2776428Y-1187048D01*
X-2776428Y-1187048D02*
X-2766905Y-1196571D01*
X-2766905Y-1196571D02*
X-2757381Y-1215619D01*
X-2757381Y-1215619D02*
X-2747857Y-1253714D01*
X-2747857Y-1253714D02*
X-2747857Y-1301333D01*
X-2747857Y-1301333D02*
X-2757381Y-1339429D01*
X-2757381Y-1339429D02*
X-2766905Y-1358476D01*
X-2766905Y-1358476D02*
X-2776428Y-1368000D01*
X-2776428Y-1368000D02*
X-2795476Y-1377524D01*
X-2795476Y-1377524D02*
X-2814524Y-1377524D01*
X-2814524Y-1377524D02*
X-2833571Y-1368000D01*
X-2833571Y-1368000D02*
X-2843095Y-1358476D01*
X-2843095Y-1358476D02*
X-2852619Y-1339429D01*
X-2852619Y-1339429D02*
X-2862143Y-1301333D01*
X-2862143Y-1301333D02*
X-2862143Y-1253714D01*
X-2862143Y-1253714D02*
X-2852619Y-1215619D01*
X-2852619Y-1215619D02*
X-2843095Y-1196571D01*
X-2843095Y-1196571D02*
X-2833571Y-1187048D01*
X-2833571Y-1187048D02*
X-2814524Y-1177524D01*
X-2662143Y-1358476D02*
X-2652619Y-1368000D01*
X-2652619Y-1368000D02*
X-2662143Y-1377524D01*
X-2662143Y-1377524D02*
X-2671666Y-1368000D01*
X-2671666Y-1368000D02*
X-2662143Y-1358476D01*
X-2662143Y-1358476D02*
X-2662143Y-1377524D01*
X-2576428Y-1196571D02*
X-2566905Y-1187048D01*
X-2566905Y-1187048D02*
X-2547857Y-1177524D01*
X-2547857Y-1177524D02*
X-2500238Y-1177524D01*
X-2500238Y-1177524D02*
X-2481190Y-1187048D01*
X-2481190Y-1187048D02*
X-2471666Y-1196571D01*
X-2471666Y-1196571D02*
X-2462143Y-1215619D01*
X-2462143Y-1215619D02*
X-2462143Y-1234667D01*
X-2462143Y-1234667D02*
X-2471666Y-1263238D01*
X-2471666Y-1263238D02*
X-2585952Y-1377524D01*
X-2585952Y-1377524D02*
X-2462143Y-1377524D01*
X-2395476Y-1177524D02*
X-2262143Y-1177524D01*
X-2262143Y-1177524D02*
X-2347857Y-1377524D01*
X-2090714Y-1177524D02*
X-2185952Y-1177524D01*
X-2185952Y-1177524D02*
X-2195476Y-1272762D01*
X-2195476Y-1272762D02*
X-2185952Y-1263238D01*
X-2185952Y-1263238D02*
X-2166905Y-1253714D01*
X-2166905Y-1253714D02*
X-2119285Y-1253714D01*
X-2119285Y-1253714D02*
X-2100238Y-1263238D01*
X-2100238Y-1263238D02*
X-2090714Y-1272762D01*
X-2090714Y-1272762D02*
X-2081190Y-1291810D01*
X-2081190Y-1291810D02*
X-2081190Y-1339429D01*
X-2081190Y-1339429D02*
X-2090714Y-1358476D01*
X-2090714Y-1358476D02*
X-2100238Y-1368000D01*
X-2100238Y-1368000D02*
X-2119285Y-1377524D01*
X-2119285Y-1377524D02*
X-2166905Y-1377524D01*
X-2166905Y-1377524D02*
X-2185952Y-1368000D01*
X-2185952Y-1368000D02*
X-2195476Y-1358476D01*
X-1909762Y-1177524D02*
X-1947857Y-1177524D01*
X-1947857Y-1177524D02*
X-1966904Y-1187048D01*
X-1966904Y-1187048D02*
X-1976428Y-1196571D01*
X-1976428Y-1196571D02*
X-1995476Y-1225143D01*
X-1995476Y-1225143D02*
X-2005000Y-1263238D01*
X-2005000Y-1263238D02*
X-2005000Y-1339429D01*
X-2005000Y-1339429D02*
X-1995476Y-1358476D01*
X-1995476Y-1358476D02*
X-1985952Y-1368000D01*
X-1985952Y-1368000D02*
X-1966904Y-1377524D01*
X-1966904Y-1377524D02*
X-1928809Y-1377524D01*
X-1928809Y-1377524D02*
X-1909762Y-1368000D01*
X-1909762Y-1368000D02*
X-1900238Y-1358476D01*
X-1900238Y-1358476D02*
X-1890714Y-1339429D01*
X-1890714Y-1339429D02*
X-1890714Y-1291810D01*
X-1890714Y-1291810D02*
X-1900238Y-1272762D01*
X-1900238Y-1272762D02*
X-1909762Y-1263238D01*
X-1909762Y-1263238D02*
X-1928809Y-1253714D01*
X-1928809Y-1253714D02*
X-1966904Y-1253714D01*
X-1966904Y-1253714D02*
X-1985952Y-1263238D01*
X-1985952Y-1263238D02*
X-1995476Y-1272762D01*
X-1995476Y-1272762D02*
X-2005000Y-1291810D01*
X-1814523Y-1177524D02*
X-1814523Y-1215619D01*
X-1738333Y-1177524D02*
X-1738333Y-1215619D01*
X-1443095Y-1453714D02*
X-1452619Y-1444190D01*
X-1452619Y-1444190D02*
X-1471666Y-1415619D01*
X-1471666Y-1415619D02*
X-1481190Y-1396571D01*
X-1481190Y-1396571D02*
X-1490714Y-1368000D01*
X-1490714Y-1368000D02*
X-1500238Y-1320381D01*
X-1500238Y-1320381D02*
X-1500238Y-1282286D01*
X-1500238Y-1282286D02*
X-1490714Y-1234667D01*
X-1490714Y-1234667D02*
X-1481190Y-1206095D01*
X-1481190Y-1206095D02*
X-1471666Y-1187048D01*
X-1471666Y-1187048D02*
X-1452619Y-1158476D01*
X-1452619Y-1158476D02*
X-1443095Y-1148952D01*
X-1262143Y-1377524D02*
X-1376428Y-1377524D01*
X-1319285Y-1377524D02*
X-1319285Y-1177524D01*
X-1319285Y-1177524D02*
X-1338333Y-1206095D01*
X-1338333Y-1206095D02*
X-1357381Y-1225143D01*
X-1357381Y-1225143D02*
X-1376428Y-1234667D01*
X-1195476Y-1177524D02*
X-1062143Y-1177524D01*
X-1062143Y-1177524D02*
X-1147857Y-1377524D01*
X-833571Y-1377524D02*
X-833571Y-1177524D01*
X-747857Y-1377524D02*
X-747857Y-1272762D01*
X-747857Y-1272762D02*
X-757380Y-1253714D01*
X-757380Y-1253714D02*
X-776428Y-1244190D01*
X-776428Y-1244190D02*
X-805000Y-1244190D01*
X-805000Y-1244190D02*
X-824047Y-1253714D01*
X-824047Y-1253714D02*
X-833571Y-1263238D01*
X-624047Y-1377524D02*
X-643095Y-1368000D01*
X-643095Y-1368000D02*
X-652619Y-1358476D01*
X-652619Y-1358476D02*
X-662142Y-1339429D01*
X-662142Y-1339429D02*
X-662142Y-1282286D01*
X-662142Y-1282286D02*
X-652619Y-1263238D01*
X-652619Y-1263238D02*
X-643095Y-1253714D01*
X-643095Y-1253714D02*
X-624047Y-1244190D01*
X-624047Y-1244190D02*
X-595476Y-1244190D01*
X-595476Y-1244190D02*
X-576428Y-1253714D01*
X-576428Y-1253714D02*
X-566904Y-1263238D01*
X-566904Y-1263238D02*
X-557381Y-1282286D01*
X-557381Y-1282286D02*
X-557381Y-1339429D01*
X-557381Y-1339429D02*
X-566904Y-1358476D01*
X-566904Y-1358476D02*
X-576428Y-1368000D01*
X-576428Y-1368000D02*
X-595476Y-1377524D01*
X-595476Y-1377524D02*
X-624047Y-1377524D01*
X-443095Y-1377524D02*
X-462142Y-1368000D01*
X-462142Y-1368000D02*
X-471666Y-1348952D01*
X-471666Y-1348952D02*
X-471666Y-1177524D01*
X-290714Y-1368000D02*
X-309761Y-1377524D01*
X-309761Y-1377524D02*
X-347857Y-1377524D01*
X-347857Y-1377524D02*
X-366904Y-1368000D01*
X-366904Y-1368000D02*
X-376428Y-1348952D01*
X-376428Y-1348952D02*
X-376428Y-1272762D01*
X-376428Y-1272762D02*
X-366904Y-1253714D01*
X-366904Y-1253714D02*
X-347857Y-1244190D01*
X-347857Y-1244190D02*
X-309761Y-1244190D01*
X-309761Y-1244190D02*
X-290714Y-1253714D01*
X-290714Y-1253714D02*
X-281190Y-1272762D01*
X-281190Y-1272762D02*
X-281190Y-1291810D01*
X-281190Y-1291810D02*
X-376428Y-1310857D01*
X-204999Y-1368000D02*
X-185952Y-1377524D01*
X-185952Y-1377524D02*
X-147857Y-1377524D01*
X-147857Y-1377524D02*
X-128809Y-1368000D01*
X-128809Y-1368000D02*
X-119285Y-1348952D01*
X-119285Y-1348952D02*
X-119285Y-1339429D01*
X-119285Y-1339429D02*
X-128809Y-1320381D01*
X-128809Y-1320381D02*
X-147857Y-1310857D01*
X-147857Y-1310857D02*
X-176428Y-1310857D01*
X-176428Y-1310857D02*
X-195476Y-1301333D01*
X-195476Y-1301333D02*
X-204999Y-1282286D01*
X-204999Y-1282286D02*
X-204999Y-1272762D01*
X-204999Y-1272762D02*
X-195476Y-1253714D01*
X-195476Y-1253714D02*
X-176428Y-1244190D01*
X-176428Y-1244190D02*
X-147857Y-1244190D01*
X-147857Y-1244190D02*
X-128809Y-1253714D01*
X-52618Y-1453714D02*
X-43095Y-1444190D01*
X-43095Y-1444190D02*
X-24047Y-1415619D01*
X-24047Y-1415619D02*
X-14523Y-1396571D01*
X-14523Y-1396571D02*
X-5000Y-1368000D01*
X-5000Y-1368000D02*
X4524Y-1320381D01*
X4524Y-1320381D02*
X4524Y-1282286D01*
X4524Y-1282286D02*
X-5000Y-1234667D01*
X-5000Y-1234667D02*
X-14523Y-1206095D01*
X-14523Y-1206095D02*
X-24047Y-1187048D01*
X-24047Y-1187048D02*
X-43095Y-1158476D01*
X-43095Y-1158476D02*
X-52618Y-1148952D01*
X-5034289Y-1675711D02*
X-5034289Y-1534289D01*
X-5175711Y-1534289D01*
X-5175711Y-1675711D01*
X-5034289Y-1675711D01*
X-4652619Y-1697524D02*
X-4766905Y-1697524D01*
X-4709762Y-1697524D02*
X-4709762Y-1497524D01*
X-4709762Y-1497524D02*
X-4728810Y-1526095D01*
X-4728810Y-1526095D02*
X-4747857Y-1545143D01*
X-4747857Y-1545143D02*
X-4766905Y-1554667D01*
X-4528810Y-1497524D02*
X-4509762Y-1497524D01*
X-4509762Y-1497524D02*
X-4490714Y-1507048D01*
X-4490714Y-1507048D02*
X-4481190Y-1516571D01*
X-4481190Y-1516571D02*
X-4471667Y-1535619D01*
X-4471667Y-1535619D02*
X-4462143Y-1573714D01*
X-4462143Y-1573714D02*
X-4462143Y-1621333D01*
X-4462143Y-1621333D02*
X-4471667Y-1659428D01*
X-4471667Y-1659428D02*
X-4481190Y-1678476D01*
X-4481190Y-1678476D02*
X-4490714Y-1688000D01*
X-4490714Y-1688000D02*
X-4509762Y-1697524D01*
X-4509762Y-1697524D02*
X-4528810Y-1697524D01*
X-4528810Y-1697524D02*
X-4547857Y-1688000D01*
X-4547857Y-1688000D02*
X-4557381Y-1678476D01*
X-4557381Y-1678476D02*
X-4566905Y-1659428D01*
X-4566905Y-1659428D02*
X-4576429Y-1621333D01*
X-4576429Y-1621333D02*
X-4576429Y-1573714D01*
X-4576429Y-1573714D02*
X-4566905Y-1535619D01*
X-4566905Y-1535619D02*
X-4557381Y-1516571D01*
X-4557381Y-1516571D02*
X-4547857Y-1507048D01*
X-4547857Y-1507048D02*
X-4528810Y-1497524D01*
X-4376429Y-1678476D02*
X-4366905Y-1688000D01*
X-4366905Y-1688000D02*
X-4376429Y-1697524D01*
X-4376429Y-1697524D02*
X-4385952Y-1688000D01*
X-4385952Y-1688000D02*
X-4376429Y-1678476D01*
X-4376429Y-1678476D02*
X-4376429Y-1697524D01*
X-4243095Y-1497524D02*
X-4224048Y-1497524D01*
X-4224048Y-1497524D02*
X-4205000Y-1507048D01*
X-4205000Y-1507048D02*
X-4195476Y-1516571D01*
X-4195476Y-1516571D02*
X-4185952Y-1535619D01*
X-4185952Y-1535619D02*
X-4176428Y-1573714D01*
X-4176428Y-1573714D02*
X-4176428Y-1621333D01*
X-4176428Y-1621333D02*
X-4185952Y-1659428D01*
X-4185952Y-1659428D02*
X-4195476Y-1678476D01*
X-4195476Y-1678476D02*
X-4205000Y-1688000D01*
X-4205000Y-1688000D02*
X-4224048Y-1697524D01*
X-4224048Y-1697524D02*
X-4243095Y-1697524D01*
X-4243095Y-1697524D02*
X-4262143Y-1688000D01*
X-4262143Y-1688000D02*
X-4271667Y-1678476D01*
X-4271667Y-1678476D02*
X-4281190Y-1659428D01*
X-4281190Y-1659428D02*
X-4290714Y-1621333D01*
X-4290714Y-1621333D02*
X-4290714Y-1573714D01*
X-4290714Y-1573714D02*
X-4281190Y-1535619D01*
X-4281190Y-1535619D02*
X-4271667Y-1516571D01*
X-4271667Y-1516571D02*
X-4262143Y-1507048D01*
X-4262143Y-1507048D02*
X-4243095Y-1497524D01*
X-4052619Y-1497524D02*
X-4033571Y-1497524D01*
X-4033571Y-1497524D02*
X-4014524Y-1507048D01*
X-4014524Y-1507048D02*
X-4005000Y-1516571D01*
X-4005000Y-1516571D02*
X-3995476Y-1535619D01*
X-3995476Y-1535619D02*
X-3985952Y-1573714D01*
X-3985952Y-1573714D02*
X-3985952Y-1621333D01*
X-3985952Y-1621333D02*
X-3995476Y-1659428D01*
X-3995476Y-1659428D02*
X-4005000Y-1678476D01*
X-4005000Y-1678476D02*
X-4014524Y-1688000D01*
X-4014524Y-1688000D02*
X-4033571Y-1697524D01*
X-4033571Y-1697524D02*
X-4052619Y-1697524D01*
X-4052619Y-1697524D02*
X-4071667Y-1688000D01*
X-4071667Y-1688000D02*
X-4081190Y-1678476D01*
X-4081190Y-1678476D02*
X-4090714Y-1659428D01*
X-4090714Y-1659428D02*
X-4100238Y-1621333D01*
X-4100238Y-1621333D02*
X-4100238Y-1573714D01*
X-4100238Y-1573714D02*
X-4090714Y-1535619D01*
X-4090714Y-1535619D02*
X-4081190Y-1516571D01*
X-4081190Y-1516571D02*
X-4071667Y-1507048D01*
X-4071667Y-1507048D02*
X-4052619Y-1497524D01*
X-3862143Y-1497524D02*
X-3843095Y-1497524D01*
X-3843095Y-1497524D02*
X-3824047Y-1507048D01*
X-3824047Y-1507048D02*
X-3814524Y-1516571D01*
X-3814524Y-1516571D02*
X-3805000Y-1535619D01*
X-3805000Y-1535619D02*
X-3795476Y-1573714D01*
X-3795476Y-1573714D02*
X-3795476Y-1621333D01*
X-3795476Y-1621333D02*
X-3805000Y-1659428D01*
X-3805000Y-1659428D02*
X-3814524Y-1678476D01*
X-3814524Y-1678476D02*
X-3824047Y-1688000D01*
X-3824047Y-1688000D02*
X-3843095Y-1697524D01*
X-3843095Y-1697524D02*
X-3862143Y-1697524D01*
X-3862143Y-1697524D02*
X-3881190Y-1688000D01*
X-3881190Y-1688000D02*
X-3890714Y-1678476D01*
X-3890714Y-1678476D02*
X-3900238Y-1659428D01*
X-3900238Y-1659428D02*
X-3909762Y-1621333D01*
X-3909762Y-1621333D02*
X-3909762Y-1573714D01*
X-3909762Y-1573714D02*
X-3900238Y-1535619D01*
X-3900238Y-1535619D02*
X-3890714Y-1516571D01*
X-3890714Y-1516571D02*
X-3881190Y-1507048D01*
X-3881190Y-1507048D02*
X-3862143Y-1497524D01*
X-3709762Y-1697524D02*
X-3709762Y-1564190D01*
X-3709762Y-1583238D02*
X-3700238Y-1573714D01*
X-3700238Y-1573714D02*
X-3681190Y-1564190D01*
X-3681190Y-1564190D02*
X-3652619Y-1564190D01*
X-3652619Y-1564190D02*
X-3633571Y-1573714D01*
X-3633571Y-1573714D02*
X-3624047Y-1592762D01*
X-3624047Y-1592762D02*
X-3624047Y-1697524D01*
X-3624047Y-1592762D02*
X-3614524Y-1573714D01*
X-3614524Y-1573714D02*
X-3595476Y-1564190D01*
X-3595476Y-1564190D02*
X-3566905Y-1564190D01*
X-3566905Y-1564190D02*
X-3547857Y-1573714D01*
X-3547857Y-1573714D02*
X-3538333Y-1592762D01*
X-3538333Y-1592762D02*
X-3538333Y-1697524D01*
X-3443095Y-1697524D02*
X-3443095Y-1564190D01*
X-3443095Y-1583238D02*
X-3433571Y-1573714D01*
X-3433571Y-1573714D02*
X-3414524Y-1564190D01*
X-3414524Y-1564190D02*
X-3385952Y-1564190D01*
X-3385952Y-1564190D02*
X-3366905Y-1573714D01*
X-3366905Y-1573714D02*
X-3357381Y-1592762D01*
X-3357381Y-1592762D02*
X-3357381Y-1697524D01*
X-3357381Y-1592762D02*
X-3347857Y-1573714D01*
X-3347857Y-1573714D02*
X-3328809Y-1564190D01*
X-3328809Y-1564190D02*
X-3300238Y-1564190D01*
X-3300238Y-1564190D02*
X-3281190Y-1573714D01*
X-3281190Y-1573714D02*
X-3271666Y-1592762D01*
X-3271666Y-1592762D02*
X-3271666Y-1697524D01*
X-2881190Y-1488000D02*
X-3052619Y-1745143D01*
X-2624047Y-1497524D02*
X-2605000Y-1497524D01*
X-2605000Y-1497524D02*
X-2585952Y-1507048D01*
X-2585952Y-1507048D02*
X-2576428Y-1516571D01*
X-2576428Y-1516571D02*
X-2566905Y-1535619D01*
X-2566905Y-1535619D02*
X-2557381Y-1573714D01*
X-2557381Y-1573714D02*
X-2557381Y-1621333D01*
X-2557381Y-1621333D02*
X-2566905Y-1659428D01*
X-2566905Y-1659428D02*
X-2576428Y-1678476D01*
X-2576428Y-1678476D02*
X-2585952Y-1688000D01*
X-2585952Y-1688000D02*
X-2605000Y-1697524D01*
X-2605000Y-1697524D02*
X-2624047Y-1697524D01*
X-2624047Y-1697524D02*
X-2643095Y-1688000D01*
X-2643095Y-1688000D02*
X-2652619Y-1678476D01*
X-2652619Y-1678476D02*
X-2662143Y-1659428D01*
X-2662143Y-1659428D02*
X-2671666Y-1621333D01*
X-2671666Y-1621333D02*
X-2671666Y-1573714D01*
X-2671666Y-1573714D02*
X-2662143Y-1535619D01*
X-2662143Y-1535619D02*
X-2652619Y-1516571D01*
X-2652619Y-1516571D02*
X-2643095Y-1507048D01*
X-2643095Y-1507048D02*
X-2624047Y-1497524D01*
X-2471666Y-1678476D02*
X-2462143Y-1688000D01*
X-2462143Y-1688000D02*
X-2471666Y-1697524D01*
X-2471666Y-1697524D02*
X-2481190Y-1688000D01*
X-2481190Y-1688000D02*
X-2471666Y-1678476D01*
X-2471666Y-1678476D02*
X-2471666Y-1697524D01*
X-2395476Y-1497524D02*
X-2271666Y-1497524D01*
X-2271666Y-1497524D02*
X-2338333Y-1573714D01*
X-2338333Y-1573714D02*
X-2309762Y-1573714D01*
X-2309762Y-1573714D02*
X-2290714Y-1583238D01*
X-2290714Y-1583238D02*
X-2281190Y-1592762D01*
X-2281190Y-1592762D02*
X-2271666Y-1611809D01*
X-2271666Y-1611809D02*
X-2271666Y-1659428D01*
X-2271666Y-1659428D02*
X-2281190Y-1678476D01*
X-2281190Y-1678476D02*
X-2290714Y-1688000D01*
X-2290714Y-1688000D02*
X-2309762Y-1697524D01*
X-2309762Y-1697524D02*
X-2366905Y-1697524D01*
X-2366905Y-1697524D02*
X-2385952Y-1688000D01*
X-2385952Y-1688000D02*
X-2395476Y-1678476D01*
X-2176428Y-1697524D02*
X-2138333Y-1697524D01*
X-2138333Y-1697524D02*
X-2119285Y-1688000D01*
X-2119285Y-1688000D02*
X-2109762Y-1678476D01*
X-2109762Y-1678476D02*
X-2090714Y-1649905D01*
X-2090714Y-1649905D02*
X-2081190Y-1611809D01*
X-2081190Y-1611809D02*
X-2081190Y-1535619D01*
X-2081190Y-1535619D02*
X-2090714Y-1516571D01*
X-2090714Y-1516571D02*
X-2100238Y-1507048D01*
X-2100238Y-1507048D02*
X-2119285Y-1497524D01*
X-2119285Y-1497524D02*
X-2157381Y-1497524D01*
X-2157381Y-1497524D02*
X-2176428Y-1507048D01*
X-2176428Y-1507048D02*
X-2185952Y-1516571D01*
X-2185952Y-1516571D02*
X-2195476Y-1535619D01*
X-2195476Y-1535619D02*
X-2195476Y-1583238D01*
X-2195476Y-1583238D02*
X-2185952Y-1602286D01*
X-2185952Y-1602286D02*
X-2176428Y-1611809D01*
X-2176428Y-1611809D02*
X-2157381Y-1621333D01*
X-2157381Y-1621333D02*
X-2119285Y-1621333D01*
X-2119285Y-1621333D02*
X-2100238Y-1611809D01*
X-2100238Y-1611809D02*
X-2090714Y-1602286D01*
X-2090714Y-1602286D02*
X-2081190Y-1583238D01*
X-2014523Y-1497524D02*
X-1890714Y-1497524D01*
X-1890714Y-1497524D02*
X-1957381Y-1573714D01*
X-1957381Y-1573714D02*
X-1928809Y-1573714D01*
X-1928809Y-1573714D02*
X-1909762Y-1583238D01*
X-1909762Y-1583238D02*
X-1900238Y-1592762D01*
X-1900238Y-1592762D02*
X-1890714Y-1611809D01*
X-1890714Y-1611809D02*
X-1890714Y-1659428D01*
X-1890714Y-1659428D02*
X-1900238Y-1678476D01*
X-1900238Y-1678476D02*
X-1909762Y-1688000D01*
X-1909762Y-1688000D02*
X-1928809Y-1697524D01*
X-1928809Y-1697524D02*
X-1985952Y-1697524D01*
X-1985952Y-1697524D02*
X-2005000Y-1688000D01*
X-2005000Y-1688000D02*
X-2014523Y-1678476D01*
X-1824047Y-1497524D02*
X-1690714Y-1497524D01*
X-1690714Y-1497524D02*
X-1776428Y-1697524D01*
X-1624047Y-1497524D02*
X-1624047Y-1535619D01*
X-1547857Y-1497524D02*
X-1547857Y-1535619D01*
X-1252619Y-1773714D02*
X-1262143Y-1764190D01*
X-1262143Y-1764190D02*
X-1281190Y-1735619D01*
X-1281190Y-1735619D02*
X-1290714Y-1716571D01*
X-1290714Y-1716571D02*
X-1300238Y-1688000D01*
X-1300238Y-1688000D02*
X-1309762Y-1640381D01*
X-1309762Y-1640381D02*
X-1309762Y-1602286D01*
X-1309762Y-1602286D02*
X-1300238Y-1554667D01*
X-1300238Y-1554667D02*
X-1290714Y-1526095D01*
X-1290714Y-1526095D02*
X-1281190Y-1507048D01*
X-1281190Y-1507048D02*
X-1262143Y-1478476D01*
X-1262143Y-1478476D02*
X-1252619Y-1468952D01*
X-1195476Y-1497524D02*
X-1062143Y-1497524D01*
X-1062143Y-1497524D02*
X-1147857Y-1697524D01*
X-833571Y-1697524D02*
X-833571Y-1497524D01*
X-747857Y-1697524D02*
X-747857Y-1592762D01*
X-747857Y-1592762D02*
X-757380Y-1573714D01*
X-757380Y-1573714D02*
X-776428Y-1564190D01*
X-776428Y-1564190D02*
X-805000Y-1564190D01*
X-805000Y-1564190D02*
X-824047Y-1573714D01*
X-824047Y-1573714D02*
X-833571Y-1583238D01*
X-624047Y-1697524D02*
X-643095Y-1688000D01*
X-643095Y-1688000D02*
X-652619Y-1678476D01*
X-652619Y-1678476D02*
X-662142Y-1659428D01*
X-662142Y-1659428D02*
X-662142Y-1602286D01*
X-662142Y-1602286D02*
X-652619Y-1583238D01*
X-652619Y-1583238D02*
X-643095Y-1573714D01*
X-643095Y-1573714D02*
X-624047Y-1564190D01*
X-624047Y-1564190D02*
X-595476Y-1564190D01*
X-595476Y-1564190D02*
X-576428Y-1573714D01*
X-576428Y-1573714D02*
X-566904Y-1583238D01*
X-566904Y-1583238D02*
X-557381Y-1602286D01*
X-557381Y-1602286D02*
X-557381Y-1659428D01*
X-557381Y-1659428D02*
X-566904Y-1678476D01*
X-566904Y-1678476D02*
X-576428Y-1688000D01*
X-576428Y-1688000D02*
X-595476Y-1697524D01*
X-595476Y-1697524D02*
X-624047Y-1697524D01*
X-443095Y-1697524D02*
X-462142Y-1688000D01*
X-462142Y-1688000D02*
X-471666Y-1668952D01*
X-471666Y-1668952D02*
X-471666Y-1497524D01*
X-290714Y-1688000D02*
X-309761Y-1697524D01*
X-309761Y-1697524D02*
X-347857Y-1697524D01*
X-347857Y-1697524D02*
X-366904Y-1688000D01*
X-366904Y-1688000D02*
X-376428Y-1668952D01*
X-376428Y-1668952D02*
X-376428Y-1592762D01*
X-376428Y-1592762D02*
X-366904Y-1573714D01*
X-366904Y-1573714D02*
X-347857Y-1564190D01*
X-347857Y-1564190D02*
X-309761Y-1564190D01*
X-309761Y-1564190D02*
X-290714Y-1573714D01*
X-290714Y-1573714D02*
X-281190Y-1592762D01*
X-281190Y-1592762D02*
X-281190Y-1611809D01*
X-281190Y-1611809D02*
X-376428Y-1630857D01*
X-204999Y-1688000D02*
X-185952Y-1697524D01*
X-185952Y-1697524D02*
X-147857Y-1697524D01*
X-147857Y-1697524D02*
X-128809Y-1688000D01*
X-128809Y-1688000D02*
X-119285Y-1668952D01*
X-119285Y-1668952D02*
X-119285Y-1659428D01*
X-119285Y-1659428D02*
X-128809Y-1640381D01*
X-128809Y-1640381D02*
X-147857Y-1630857D01*
X-147857Y-1630857D02*
X-176428Y-1630857D01*
X-176428Y-1630857D02*
X-195476Y-1621333D01*
X-195476Y-1621333D02*
X-204999Y-1602286D01*
X-204999Y-1602286D02*
X-204999Y-1592762D01*
X-204999Y-1592762D02*
X-195476Y-1573714D01*
X-195476Y-1573714D02*
X-176428Y-1564190D01*
X-176428Y-1564190D02*
X-147857Y-1564190D01*
X-147857Y-1564190D02*
X-128809Y-1573714D01*
X-52618Y-1773714D02*
X-43095Y-1764190D01*
X-43095Y-1764190D02*
X-24047Y-1735619D01*
X-24047Y-1735619D02*
X-14523Y-1716571D01*
X-14523Y-1716571D02*
X-5000Y-1688000D01*
X-5000Y-1688000D02*
X4524Y-1640381D01*
X4524Y-1640381D02*
X4524Y-1602286D01*
X4524Y-1602286D02*
X-5000Y-1554667D01*
X-5000Y-1554667D02*
X-14523Y-1526095D01*
X-14523Y-1526095D02*
X-24047Y-1507048D01*
X-24047Y-1507048D02*
X-43095Y-1478476D01*
X-43095Y-1478476D02*
X-52618Y-1468952D01*
M02*
