%TF.GenerationSoftware,KiCad,Pcbnew,7.0.1*%
%TF.CreationDate,2023-11-10T21:43:48-06:00*%
%TF.ProjectId,Metallic Chaos,4d657461-6c6c-4696-9320-4368616f732e,v1.1*%
%TF.SameCoordinates,Original*%
%TF.FileFunction,Drillmap*%
%TF.FilePolarity,Positive*%
%FSLAX45Y45*%
G04 Gerber Fmt 4.5, Leading zero omitted, Abs format (unit mm)*
G04 Created by KiCad (PCBNEW 7.0.1) date 2023-11-10 21:43:48*
%MOMM*%
%LPD*%
G01*
G04 APERTURE LIST*
%ADD10C,0.100000*%
%ADD11C,0.200000*%
G04 APERTURE END LIST*
D10*
X6000000Y18750000D02*
X15600000Y18750000D01*
X15600000Y1250000D01*
X6000000Y1250000D01*
X6000000Y18750000D01*
D11*
X6242619Y932476D02*
X6242619Y1132476D01*
X6242619Y1132476D02*
X6290238Y1132476D01*
X6290238Y1132476D02*
X6318809Y1122952D01*
X6318809Y1122952D02*
X6337857Y1103905D01*
X6337857Y1103905D02*
X6347381Y1084857D01*
X6347381Y1084857D02*
X6356905Y1046762D01*
X6356905Y1046762D02*
X6356905Y1018190D01*
X6356905Y1018190D02*
X6347381Y980095D01*
X6347381Y980095D02*
X6337857Y961048D01*
X6337857Y961048D02*
X6318809Y942000D01*
X6318809Y942000D02*
X6290238Y932476D01*
X6290238Y932476D02*
X6242619Y932476D01*
X6442619Y932476D02*
X6442619Y1065810D01*
X6442619Y1027714D02*
X6452143Y1046762D01*
X6452143Y1046762D02*
X6461667Y1056286D01*
X6461667Y1056286D02*
X6480714Y1065810D01*
X6480714Y1065810D02*
X6499762Y1065810D01*
X6566428Y932476D02*
X6566428Y1065810D01*
X6566428Y1132476D02*
X6556905Y1122952D01*
X6556905Y1122952D02*
X6566428Y1113429D01*
X6566428Y1113429D02*
X6575952Y1122952D01*
X6575952Y1122952D02*
X6566428Y1132476D01*
X6566428Y1132476D02*
X6566428Y1113429D01*
X6690238Y932476D02*
X6671190Y942000D01*
X6671190Y942000D02*
X6661667Y961048D01*
X6661667Y961048D02*
X6661667Y1132476D01*
X6795000Y932476D02*
X6775952Y942000D01*
X6775952Y942000D02*
X6766428Y961048D01*
X6766428Y961048D02*
X6766428Y1132476D01*
X7023571Y932476D02*
X7023571Y1132476D01*
X7023571Y1132476D02*
X7090238Y989619D01*
X7090238Y989619D02*
X7156905Y1132476D01*
X7156905Y1132476D02*
X7156905Y932476D01*
X7337857Y932476D02*
X7337857Y1037238D01*
X7337857Y1037238D02*
X7328333Y1056286D01*
X7328333Y1056286D02*
X7309286Y1065810D01*
X7309286Y1065810D02*
X7271190Y1065810D01*
X7271190Y1065810D02*
X7252143Y1056286D01*
X7337857Y942000D02*
X7318809Y932476D01*
X7318809Y932476D02*
X7271190Y932476D01*
X7271190Y932476D02*
X7252143Y942000D01*
X7252143Y942000D02*
X7242619Y961048D01*
X7242619Y961048D02*
X7242619Y980095D01*
X7242619Y980095D02*
X7252143Y999143D01*
X7252143Y999143D02*
X7271190Y1008667D01*
X7271190Y1008667D02*
X7318809Y1008667D01*
X7318809Y1008667D02*
X7337857Y1018190D01*
X7433095Y1065810D02*
X7433095Y865809D01*
X7433095Y1056286D02*
X7452143Y1065810D01*
X7452143Y1065810D02*
X7490238Y1065810D01*
X7490238Y1065810D02*
X7509286Y1056286D01*
X7509286Y1056286D02*
X7518809Y1046762D01*
X7518809Y1046762D02*
X7528333Y1027714D01*
X7528333Y1027714D02*
X7528333Y970571D01*
X7528333Y970571D02*
X7518809Y951524D01*
X7518809Y951524D02*
X7509286Y942000D01*
X7509286Y942000D02*
X7490238Y932476D01*
X7490238Y932476D02*
X7452143Y932476D01*
X7452143Y932476D02*
X7433095Y942000D01*
X7614048Y951524D02*
X7623571Y942000D01*
X7623571Y942000D02*
X7614048Y932476D01*
X7614048Y932476D02*
X7604524Y942000D01*
X7604524Y942000D02*
X7614048Y951524D01*
X7614048Y951524D02*
X7614048Y932476D01*
X7614048Y1056286D02*
X7623571Y1046762D01*
X7623571Y1046762D02*
X7614048Y1037238D01*
X7614048Y1037238D02*
X7604524Y1046762D01*
X7604524Y1046762D02*
X7614048Y1056286D01*
X7614048Y1056286D02*
X7614048Y1037238D01*
M02*
